%YAML 1.1
%TAG !u! tag:unity3d.com,2011:
--- !u!1 &5053394631617252495
GameObject:
  m_ObjectHideFlags: 0
  m_CorrespondingSourceObject: {fileID: 0}
  m_PrefabInstance: {fileID: 0}
  m_PrefabAsset: {fileID: 0}
  serializedVersion: 6
  m_Component:
  - component: {fileID: 1687630143253093124}
  - component: {fileID: 5523617497394263094}
  - component: {fileID: 9017832332137495969}
  m_Layer: 31
  m_Name: Layer1
  m_TagString: Untagged
  m_Icon: {fileID: 0}
  m_NavMeshLayer: 0
  m_StaticEditorFlags: 0
  m_IsActive: 1
--- !u!4 &1687630143253093124
Transform:
  m_ObjectHideFlags: 0
  m_CorrespondingSourceObject: {fileID: 0}
  m_PrefabInstance: {fileID: 0}
  m_PrefabAsset: {fileID: 0}
  m_GameObject: {fileID: 5053394631617252495}
  m_LocalRotation: {x: -0, y: -0, z: -0, w: 1}
  m_LocalPosition: {x: 0, y: 0, z: 0}
  m_LocalScale: {x: 1, y: 1, z: 1}
  m_Children: []
  m_Father: {fileID: 4567826854434436753}
  m_RootOrder: 0
  m_LocalEulerAnglesHint: {x: 0, y: 0, z: 0}
--- !u!1839735485 &5523617497394263094
Tilemap:
  m_ObjectHideFlags: 0
  m_CorrespondingSourceObject: {fileID: 0}
  m_PrefabInstance: {fileID: 0}
  m_PrefabAsset: {fileID: 0}
  m_GameObject: {fileID: 5053394631617252495}
  m_Enabled: 1
  m_Tiles:
  - first: {x: 6, y: -8, z: 0}
    second:
      m_TileIndex: 133
      m_TileSpriteIndex: 133
      m_TileMatrixIndex: 0
      m_TileColorIndex: 0
      m_ObjectToInstantiate: {fileID: 0}
      m_TileFlags: 1
      m_ColliderType: 1
  - first: {x: 7, y: -8, z: 0}
    second:
      m_TileIndex: 134
      m_TileSpriteIndex: 134
      m_TileMatrixIndex: 0
      m_TileColorIndex: 0
      m_ObjectToInstantiate: {fileID: 0}
      m_TileFlags: 1
      m_ColliderType: 1
  - first: {x: 8, y: -8, z: 0}
    second:
      m_TileIndex: 135
      m_TileSpriteIndex: 135
      m_TileMatrixIndex: 0
      m_TileColorIndex: 0
      m_ObjectToInstantiate: {fileID: 0}
      m_TileFlags: 1
      m_ColliderType: 1
  - first: {x: 9, y: -8, z: 0}
    second:
      m_TileIndex: 136
      m_TileSpriteIndex: 136
      m_TileMatrixIndex: 0
      m_TileColorIndex: 0
      m_ObjectToInstantiate: {fileID: 0}
      m_TileFlags: 1
      m_ColliderType: 1
  - first: {x: 10, y: -8, z: 0}
    second:
      m_TileIndex: 137
      m_TileSpriteIndex: 137
      m_TileMatrixIndex: 0
      m_TileColorIndex: 0
      m_ObjectToInstantiate: {fileID: 0}
      m_TileFlags: 1
      m_ColliderType: 1
  - first: {x: 11, y: -8, z: 0}
    second:
      m_TileIndex: 138
      m_TileSpriteIndex: 138
      m_TileMatrixIndex: 0
      m_TileColorIndex: 0
      m_ObjectToInstantiate: {fileID: 0}
      m_TileFlags: 1
      m_ColliderType: 1
  - first: {x: -2, y: -7, z: 0}
    second:
      m_TileIndex: 118
      m_TileSpriteIndex: 118
      m_TileMatrixIndex: 0
      m_TileColorIndex: 0
      m_ObjectToInstantiate: {fileID: 0}
      m_TileFlags: 1
      m_ColliderType: 1
  - first: {x: -1, y: -7, z: 0}
    second:
      m_TileIndex: 119
      m_TileSpriteIndex: 119
      m_TileMatrixIndex: 0
      m_TileColorIndex: 0
      m_ObjectToInstantiate: {fileID: 0}
      m_TileFlags: 1
      m_ColliderType: 1
  - first: {x: 0, y: -7, z: 0}
    second:
      m_TileIndex: 120
      m_TileSpriteIndex: 120
      m_TileMatrixIndex: 0
      m_TileColorIndex: 0
      m_ObjectToInstantiate: {fileID: 0}
      m_TileFlags: 1
      m_ColliderType: 1
  - first: {x: 1, y: -7, z: 0}
    second:
      m_TileIndex: 121
      m_TileSpriteIndex: 121
      m_TileMatrixIndex: 0
      m_TileColorIndex: 0
      m_ObjectToInstantiate: {fileID: 0}
      m_TileFlags: 1
      m_ColliderType: 1
  - first: {x: 2, y: -7, z: 0}
    second:
      m_TileIndex: 122
      m_TileSpriteIndex: 122
      m_TileMatrixIndex: 0
      m_TileColorIndex: 0
      m_ObjectToInstantiate: {fileID: 0}
      m_TileFlags: 1
      m_ColliderType: 1
  - first: {x: 3, y: -7, z: 0}
    second:
      m_TileIndex: 123
      m_TileSpriteIndex: 123
      m_TileMatrixIndex: 0
      m_TileColorIndex: 0
      m_ObjectToInstantiate: {fileID: 0}
      m_TileFlags: 1
      m_ColliderType: 1
  - first: {x: 6, y: -7, z: 0}
    second:
      m_TileIndex: 124
      m_TileSpriteIndex: 124
      m_TileMatrixIndex: 0
      m_TileColorIndex: 0
      m_ObjectToInstantiate: {fileID: 0}
      m_TileFlags: 1
      m_ColliderType: 1
  - first: {x: 7, y: -7, z: 0}
    second:
      m_TileIndex: 125
      m_TileSpriteIndex: 125
      m_TileMatrixIndex: 0
      m_TileColorIndex: 0
      m_ObjectToInstantiate: {fileID: 0}
      m_TileFlags: 1
      m_ColliderType: 1
  - first: {x: 8, y: -7, z: 0}
    second:
      m_TileIndex: 126
      m_TileSpriteIndex: 126
      m_TileMatrixIndex: 0
      m_TileColorIndex: 0
      m_ObjectToInstantiate: {fileID: 0}
      m_TileFlags: 1
      m_ColliderType: 1
  - first: {x: 9, y: -7, z: 0}
    second:
      m_TileIndex: 127
      m_TileSpriteIndex: 127
      m_TileMatrixIndex: 0
      m_TileColorIndex: 0
      m_ObjectToInstantiate: {fileID: 0}
      m_TileFlags: 1
      m_ColliderType: 1
  - first: {x: 10, y: -7, z: 0}
    second:
      m_TileIndex: 128
      m_TileSpriteIndex: 128
      m_TileMatrixIndex: 0
      m_TileColorIndex: 0
      m_ObjectToInstantiate: {fileID: 0}
      m_TileFlags: 1
      m_ColliderType: 1
  - first: {x: 11, y: -7, z: 0}
    second:
      m_TileIndex: 129
      m_TileSpriteIndex: 129
      m_TileMatrixIndex: 0
      m_TileColorIndex: 0
      m_ObjectToInstantiate: {fileID: 0}
      m_TileFlags: 1
      m_ColliderType: 1
  - first: {x: 13, y: -7, z: 0}
    second:
      m_TileIndex: 130
      m_TileSpriteIndex: 130
      m_TileMatrixIndex: 0
      m_TileColorIndex: 0
      m_ObjectToInstantiate: {fileID: 0}
      m_TileFlags: 1
      m_ColliderType: 1
  - first: {x: 14, y: -7, z: 0}
    second:
      m_TileIndex: 131
      m_TileSpriteIndex: 131
      m_TileMatrixIndex: 0
      m_TileColorIndex: 0
      m_ObjectToInstantiate: {fileID: 0}
      m_TileFlags: 1
      m_ColliderType: 1
  - first: {x: 15, y: -7, z: 0}
    second:
      m_TileIndex: 132
      m_TileSpriteIndex: 132
      m_TileMatrixIndex: 0
      m_TileColorIndex: 0
      m_ObjectToInstantiate: {fileID: 0}
      m_TileFlags: 1
      m_ColliderType: 1
  - first: {x: -2, y: -6, z: 0}
    second:
      m_TileIndex: 106
      m_TileSpriteIndex: 106
      m_TileMatrixIndex: 0
      m_TileColorIndex: 0
      m_ObjectToInstantiate: {fileID: 0}
      m_TileFlags: 1
      m_ColliderType: 1
  - first: {x: -1, y: -6, z: 0}
    second:
      m_TileIndex: 107
      m_TileSpriteIndex: 107
      m_TileMatrixIndex: 0
      m_TileColorIndex: 0
      m_ObjectToInstantiate: {fileID: 0}
      m_TileFlags: 1
      m_ColliderType: 1
  - first: {x: 0, y: -6, z: 0}
    second:
      m_TileIndex: 108
      m_TileSpriteIndex: 108
      m_TileMatrixIndex: 0
      m_TileColorIndex: 0
      m_ObjectToInstantiate: {fileID: 0}
      m_TileFlags: 1
      m_ColliderType: 1
  - first: {x: 1, y: -6, z: 0}
    second:
      m_TileIndex: 109
      m_TileSpriteIndex: 109
      m_TileMatrixIndex: 0
      m_TileColorIndex: 0
      m_ObjectToInstantiate: {fileID: 0}
      m_TileFlags: 1
      m_ColliderType: 1
  - first: {x: 2, y: -6, z: 0}
    second:
      m_TileIndex: 110
      m_TileSpriteIndex: 110
      m_TileMatrixIndex: 0
      m_TileColorIndex: 0
      m_ObjectToInstantiate: {fileID: 0}
      m_TileFlags: 1
      m_ColliderType: 1
  - first: {x: 3, y: -6, z: 0}
    second:
      m_TileIndex: 111
      m_TileSpriteIndex: 111
      m_TileMatrixIndex: 0
      m_TileColorIndex: 0
      m_ObjectToInstantiate: {fileID: 0}
      m_TileFlags: 1
      m_ColliderType: 1
  - first: {x: 6, y: -6, z: 0}
    second:
      m_TileIndex: 112
      m_TileSpriteIndex: 112
      m_TileMatrixIndex: 0
      m_TileColorIndex: 0
      m_ObjectToInstantiate: {fileID: 0}
      m_TileFlags: 1
      m_ColliderType: 1
  - first: {x: 7, y: -6, z: 0}
    second:
      m_TileIndex: 113
      m_TileSpriteIndex: 113
      m_TileMatrixIndex: 0
      m_TileColorIndex: 0
      m_ObjectToInstantiate: {fileID: 0}
      m_TileFlags: 1
      m_ColliderType: 1
  - first: {x: 8, y: -6, z: 0}
    second:
      m_TileIndex: 114
      m_TileSpriteIndex: 114
      m_TileMatrixIndex: 0
      m_TileColorIndex: 0
      m_ObjectToInstantiate: {fileID: 0}
      m_TileFlags: 1
      m_ColliderType: 1
  - first: {x: 9, y: -6, z: 0}
    second:
      m_TileIndex: 115
      m_TileSpriteIndex: 115
      m_TileMatrixIndex: 0
      m_TileColorIndex: 0
      m_ObjectToInstantiate: {fileID: 0}
      m_TileFlags: 1
      m_ColliderType: 1
  - first: {x: 10, y: -6, z: 0}
    second:
      m_TileIndex: 116
      m_TileSpriteIndex: 116
      m_TileMatrixIndex: 0
      m_TileColorIndex: 0
      m_ObjectToInstantiate: {fileID: 0}
      m_TileFlags: 1
      m_ColliderType: 1
  - first: {x: 11, y: -6, z: 0}
    second:
      m_TileIndex: 117
      m_TileSpriteIndex: 117
      m_TileMatrixIndex: 0
      m_TileColorIndex: 0
      m_ObjectToInstantiate: {fileID: 0}
      m_TileFlags: 1
      m_ColliderType: 1
  - first: {x: -2, y: -5, z: 0}
    second:
      m_TileIndex: 90
      m_TileSpriteIndex: 90
      m_TileMatrixIndex: 0
      m_TileColorIndex: 0
      m_ObjectToInstantiate: {fileID: 0}
      m_TileFlags: 1
      m_ColliderType: 1
  - first: {x: -1, y: -5, z: 0}
    second:
      m_TileIndex: 91
      m_TileSpriteIndex: 91
      m_TileMatrixIndex: 0
      m_TileColorIndex: 0
      m_ObjectToInstantiate: {fileID: 0}
      m_TileFlags: 1
      m_ColliderType: 1
  - first: {x: 0, y: -5, z: 0}
    second:
      m_TileIndex: 92
      m_TileSpriteIndex: 92
      m_TileMatrixIndex: 0
      m_TileColorIndex: 0
      m_ObjectToInstantiate: {fileID: 0}
      m_TileFlags: 1
      m_ColliderType: 1
  - first: {x: 1, y: -5, z: 0}
    second:
      m_TileIndex: 93
      m_TileSpriteIndex: 93
      m_TileMatrixIndex: 0
      m_TileColorIndex: 0
      m_ObjectToInstantiate: {fileID: 0}
      m_TileFlags: 1
      m_ColliderType: 1
  - first: {x: 2, y: -5, z: 0}
    second:
      m_TileIndex: 94
      m_TileSpriteIndex: 94
      m_TileMatrixIndex: 0
      m_TileColorIndex: 0
      m_ObjectToInstantiate: {fileID: 0}
      m_TileFlags: 1
      m_ColliderType: 1
  - first: {x: 3, y: -5, z: 0}
    second:
      m_TileIndex: 95
      m_TileSpriteIndex: 95
      m_TileMatrixIndex: 0
      m_TileColorIndex: 0
      m_ObjectToInstantiate: {fileID: 0}
      m_TileFlags: 1
      m_ColliderType: 1
  - first: {x: 6, y: -5, z: 0}
    second:
      m_TileIndex: 96
      m_TileSpriteIndex: 96
      m_TileMatrixIndex: 0
      m_TileColorIndex: 0
      m_ObjectToInstantiate: {fileID: 0}
      m_TileFlags: 1
      m_ColliderType: 1
  - first: {x: 7, y: -5, z: 0}
    second:
      m_TileIndex: 97
      m_TileSpriteIndex: 97
      m_TileMatrixIndex: 0
      m_TileColorIndex: 0
      m_ObjectToInstantiate: {fileID: 0}
      m_TileFlags: 1
      m_ColliderType: 1
  - first: {x: 8, y: -5, z: 0}
    second:
      m_TileIndex: 98
      m_TileSpriteIndex: 98
      m_TileMatrixIndex: 0
      m_TileColorIndex: 0
      m_ObjectToInstantiate: {fileID: 0}
      m_TileFlags: 1
      m_ColliderType: 1
  - first: {x: 9, y: -5, z: 0}
    second:
      m_TileIndex: 99
      m_TileSpriteIndex: 99
      m_TileMatrixIndex: 0
      m_TileColorIndex: 0
      m_ObjectToInstantiate: {fileID: 0}
      m_TileFlags: 1
      m_ColliderType: 1
  - first: {x: 10, y: -5, z: 0}
    second:
      m_TileIndex: 100
      m_TileSpriteIndex: 100
      m_TileMatrixIndex: 0
      m_TileColorIndex: 0
      m_ObjectToInstantiate: {fileID: 0}
      m_TileFlags: 1
      m_ColliderType: 1
  - first: {x: 11, y: -5, z: 0}
    second:
      m_TileIndex: 101
      m_TileSpriteIndex: 101
      m_TileMatrixIndex: 0
      m_TileColorIndex: 0
      m_ObjectToInstantiate: {fileID: 0}
      m_TileFlags: 1
      m_ColliderType: 1
  - first: {x: 12, y: -5, z: 0}
    second:
      m_TileIndex: 102
      m_TileSpriteIndex: 102
      m_TileMatrixIndex: 0
      m_TileColorIndex: 0
      m_ObjectToInstantiate: {fileID: 0}
      m_TileFlags: 1
      m_ColliderType: 1
  - first: {x: 13, y: -5, z: 0}
    second:
      m_TileIndex: 103
      m_TileSpriteIndex: 103
      m_TileMatrixIndex: 0
      m_TileColorIndex: 0
      m_ObjectToInstantiate: {fileID: 0}
      m_TileFlags: 1
      m_ColliderType: 1
  - first: {x: 14, y: -5, z: 0}
    second:
      m_TileIndex: 104
      m_TileSpriteIndex: 104
      m_TileMatrixIndex: 0
      m_TileColorIndex: 0
      m_ObjectToInstantiate: {fileID: 0}
      m_TileFlags: 1
      m_ColliderType: 1
  - first: {x: 15, y: -5, z: 0}
    second:
      m_TileIndex: 105
      m_TileSpriteIndex: 105
      m_TileMatrixIndex: 0
      m_TileColorIndex: 0
      m_ObjectToInstantiate: {fileID: 0}
      m_TileFlags: 1
      m_ColliderType: 1
  - first: {x: -2, y: -4, z: 0}
    second:
      m_TileIndex: 72
      m_TileSpriteIndex: 72
      m_TileMatrixIndex: 0
      m_TileColorIndex: 0
      m_ObjectToInstantiate: {fileID: 0}
      m_TileFlags: 1
      m_ColliderType: 1
  - first: {x: -1, y: -4, z: 0}
    second:
      m_TileIndex: 73
      m_TileSpriteIndex: 73
      m_TileMatrixIndex: 0
      m_TileColorIndex: 0
      m_ObjectToInstantiate: {fileID: 0}
      m_TileFlags: 1
      m_ColliderType: 1
  - first: {x: 0, y: -4, z: 0}
    second:
      m_TileIndex: 74
      m_TileSpriteIndex: 74
      m_TileMatrixIndex: 0
      m_TileColorIndex: 0
      m_ObjectToInstantiate: {fileID: 0}
      m_TileFlags: 1
      m_ColliderType: 1
  - first: {x: 1, y: -4, z: 0}
    second:
      m_TileIndex: 75
      m_TileSpriteIndex: 75
      m_TileMatrixIndex: 0
      m_TileColorIndex: 0
      m_ObjectToInstantiate: {fileID: 0}
      m_TileFlags: 1
      m_ColliderType: 1
  - first: {x: 2, y: -4, z: 0}
    second:
      m_TileIndex: 76
      m_TileSpriteIndex: 76
      m_TileMatrixIndex: 0
      m_TileColorIndex: 0
      m_ObjectToInstantiate: {fileID: 0}
      m_TileFlags: 1
      m_ColliderType: 1
  - first: {x: 3, y: -4, z: 0}
    second:
      m_TileIndex: 77
      m_TileSpriteIndex: 77
      m_TileMatrixIndex: 0
      m_TileColorIndex: 0
      m_ObjectToInstantiate: {fileID: 0}
      m_TileFlags: 1
      m_ColliderType: 1
  - first: {x: 4, y: -4, z: 0}
    second:
      m_TileIndex: 78
      m_TileSpriteIndex: 78
      m_TileMatrixIndex: 0
      m_TileColorIndex: 0
      m_ObjectToInstantiate: {fileID: 0}
      m_TileFlags: 1
      m_ColliderType: 1
  - first: {x: 5, y: -4, z: 0}
    second:
      m_TileIndex: 79
      m_TileSpriteIndex: 79
      m_TileMatrixIndex: 0
      m_TileColorIndex: 0
      m_ObjectToInstantiate: {fileID: 0}
      m_TileFlags: 1
      m_ColliderType: 1
  - first: {x: 6, y: -4, z: 0}
    second:
      m_TileIndex: 80
      m_TileSpriteIndex: 80
      m_TileMatrixIndex: 0
      m_TileColorIndex: 0
      m_ObjectToInstantiate: {fileID: 0}
      m_TileFlags: 1
      m_ColliderType: 1
  - first: {x: 7, y: -4, z: 0}
    second:
      m_TileIndex: 81
      m_TileSpriteIndex: 81
      m_TileMatrixIndex: 0
      m_TileColorIndex: 0
      m_ObjectToInstantiate: {fileID: 0}
      m_TileFlags: 1
      m_ColliderType: 1
  - first: {x: 8, y: -4, z: 0}
    second:
      m_TileIndex: 82
      m_TileSpriteIndex: 82
      m_TileMatrixIndex: 0
      m_TileColorIndex: 0
      m_ObjectToInstantiate: {fileID: 0}
      m_TileFlags: 1
      m_ColliderType: 1
  - first: {x: 9, y: -4, z: 0}
    second:
      m_TileIndex: 83
      m_TileSpriteIndex: 83
      m_TileMatrixIndex: 0
      m_TileColorIndex: 0
      m_ObjectToInstantiate: {fileID: 0}
      m_TileFlags: 1
      m_ColliderType: 1
  - first: {x: 10, y: -4, z: 0}
    second:
      m_TileIndex: 84
      m_TileSpriteIndex: 84
      m_TileMatrixIndex: 0
      m_TileColorIndex: 0
      m_ObjectToInstantiate: {fileID: 0}
      m_TileFlags: 1
      m_ColliderType: 1
  - first: {x: 11, y: -4, z: 0}
    second:
      m_TileIndex: 85
      m_TileSpriteIndex: 85
      m_TileMatrixIndex: 0
      m_TileColorIndex: 0
      m_ObjectToInstantiate: {fileID: 0}
      m_TileFlags: 1
      m_ColliderType: 1
  - first: {x: 12, y: -4, z: 0}
    second:
      m_TileIndex: 86
      m_TileSpriteIndex: 86
      m_TileMatrixIndex: 0
      m_TileColorIndex: 0
      m_ObjectToInstantiate: {fileID: 0}
      m_TileFlags: 1
      m_ColliderType: 1
  - first: {x: 13, y: -4, z: 0}
    second:
      m_TileIndex: 87
      m_TileSpriteIndex: 87
      m_TileMatrixIndex: 0
      m_TileColorIndex: 0
      m_ObjectToInstantiate: {fileID: 0}
      m_TileFlags: 1
      m_ColliderType: 1
  - first: {x: 14, y: -4, z: 0}
    second:
      m_TileIndex: 88
      m_TileSpriteIndex: 88
      m_TileMatrixIndex: 0
      m_TileColorIndex: 0
      m_ObjectToInstantiate: {fileID: 0}
      m_TileFlags: 1
      m_ColliderType: 1
  - first: {x: 15, y: -4, z: 0}
    second:
      m_TileIndex: 89
      m_TileSpriteIndex: 89
      m_TileMatrixIndex: 0
      m_TileColorIndex: 0
      m_ObjectToInstantiate: {fileID: 0}
      m_TileFlags: 1
      m_ColliderType: 1
  - first: {x: -2, y: -3, z: 0}
    second:
      m_TileIndex: 54
      m_TileSpriteIndex: 54
      m_TileMatrixIndex: 0
      m_TileColorIndex: 0
      m_ObjectToInstantiate: {fileID: 0}
      m_TileFlags: 1
      m_ColliderType: 1
  - first: {x: -1, y: -3, z: 0}
    second:
      m_TileIndex: 55
      m_TileSpriteIndex: 55
      m_TileMatrixIndex: 0
      m_TileColorIndex: 0
      m_ObjectToInstantiate: {fileID: 0}
      m_TileFlags: 1
      m_ColliderType: 1
  - first: {x: 0, y: -3, z: 0}
    second:
      m_TileIndex: 56
      m_TileSpriteIndex: 56
      m_TileMatrixIndex: 0
      m_TileColorIndex: 0
      m_ObjectToInstantiate: {fileID: 0}
      m_TileFlags: 1
      m_ColliderType: 1
  - first: {x: 1, y: -3, z: 0}
    second:
      m_TileIndex: 57
      m_TileSpriteIndex: 57
      m_TileMatrixIndex: 0
      m_TileColorIndex: 0
      m_ObjectToInstantiate: {fileID: 0}
      m_TileFlags: 1
      m_ColliderType: 1
  - first: {x: 2, y: -3, z: 0}
    second:
      m_TileIndex: 58
      m_TileSpriteIndex: 58
      m_TileMatrixIndex: 0
      m_TileColorIndex: 0
      m_ObjectToInstantiate: {fileID: 0}
      m_TileFlags: 1
      m_ColliderType: 1
  - first: {x: 3, y: -3, z: 0}
    second:
      m_TileIndex: 59
      m_TileSpriteIndex: 59
      m_TileMatrixIndex: 0
      m_TileColorIndex: 0
      m_ObjectToInstantiate: {fileID: 0}
      m_TileFlags: 1
      m_ColliderType: 1
  - first: {x: 4, y: -3, z: 0}
    second:
      m_TileIndex: 60
      m_TileSpriteIndex: 60
      m_TileMatrixIndex: 0
      m_TileColorIndex: 0
      m_ObjectToInstantiate: {fileID: 0}
      m_TileFlags: 1
      m_ColliderType: 1
  - first: {x: 5, y: -3, z: 0}
    second:
      m_TileIndex: 61
      m_TileSpriteIndex: 61
      m_TileMatrixIndex: 0
      m_TileColorIndex: 0
      m_ObjectToInstantiate: {fileID: 0}
      m_TileFlags: 1
      m_ColliderType: 1
  - first: {x: 6, y: -3, z: 0}
    second:
      m_TileIndex: 62
      m_TileSpriteIndex: 62
      m_TileMatrixIndex: 0
      m_TileColorIndex: 0
      m_ObjectToInstantiate: {fileID: 0}
      m_TileFlags: 1
      m_ColliderType: 1
  - first: {x: 7, y: -3, z: 0}
    second:
      m_TileIndex: 63
      m_TileSpriteIndex: 63
      m_TileMatrixIndex: 0
      m_TileColorIndex: 0
      m_ObjectToInstantiate: {fileID: 0}
      m_TileFlags: 1
      m_ColliderType: 1
  - first: {x: 8, y: -3, z: 0}
    second:
      m_TileIndex: 64
      m_TileSpriteIndex: 64
      m_TileMatrixIndex: 0
      m_TileColorIndex: 0
      m_ObjectToInstantiate: {fileID: 0}
      m_TileFlags: 1
      m_ColliderType: 1
  - first: {x: 9, y: -3, z: 0}
    second:
      m_TileIndex: 65
      m_TileSpriteIndex: 65
      m_TileMatrixIndex: 0
      m_TileColorIndex: 0
      m_ObjectToInstantiate: {fileID: 0}
      m_TileFlags: 1
      m_ColliderType: 1
  - first: {x: 10, y: -3, z: 0}
    second:
      m_TileIndex: 66
      m_TileSpriteIndex: 66
      m_TileMatrixIndex: 0
      m_TileColorIndex: 0
      m_ObjectToInstantiate: {fileID: 0}
      m_TileFlags: 1
      m_ColliderType: 1
  - first: {x: 11, y: -3, z: 0}
    second:
      m_TileIndex: 67
      m_TileSpriteIndex: 67
      m_TileMatrixIndex: 0
      m_TileColorIndex: 0
      m_ObjectToInstantiate: {fileID: 0}
      m_TileFlags: 1
      m_ColliderType: 1
  - first: {x: 12, y: -3, z: 0}
    second:
      m_TileIndex: 68
      m_TileSpriteIndex: 68
      m_TileMatrixIndex: 0
      m_TileColorIndex: 0
      m_ObjectToInstantiate: {fileID: 0}
      m_TileFlags: 1
      m_ColliderType: 1
  - first: {x: 13, y: -3, z: 0}
    second:
      m_TileIndex: 69
      m_TileSpriteIndex: 69
      m_TileMatrixIndex: 0
      m_TileColorIndex: 0
      m_ObjectToInstantiate: {fileID: 0}
      m_TileFlags: 1
      m_ColliderType: 1
  - first: {x: 14, y: -3, z: 0}
    second:
      m_TileIndex: 70
      m_TileSpriteIndex: 70
      m_TileMatrixIndex: 0
      m_TileColorIndex: 0
      m_ObjectToInstantiate: {fileID: 0}
      m_TileFlags: 1
      m_ColliderType: 1
  - first: {x: 15, y: -3, z: 0}
    second:
      m_TileIndex: 71
      m_TileSpriteIndex: 71
      m_TileMatrixIndex: 0
      m_TileColorIndex: 0
      m_ObjectToInstantiate: {fileID: 0}
      m_TileFlags: 1
      m_ColliderType: 1
  - first: {x: -2, y: -2, z: 0}
    second:
      m_TileIndex: 36
      m_TileSpriteIndex: 36
      m_TileMatrixIndex: 0
      m_TileColorIndex: 0
      m_ObjectToInstantiate: {fileID: 0}
      m_TileFlags: 1
      m_ColliderType: 1
  - first: {x: -1, y: -2, z: 0}
    second:
      m_TileIndex: 37
      m_TileSpriteIndex: 37
      m_TileMatrixIndex: 0
      m_TileColorIndex: 0
      m_ObjectToInstantiate: {fileID: 0}
      m_TileFlags: 1
      m_ColliderType: 1
  - first: {x: 0, y: -2, z: 0}
    second:
      m_TileIndex: 38
      m_TileSpriteIndex: 38
      m_TileMatrixIndex: 0
      m_TileColorIndex: 0
      m_ObjectToInstantiate: {fileID: 0}
      m_TileFlags: 1
      m_ColliderType: 1
  - first: {x: 1, y: -2, z: 0}
    second:
      m_TileIndex: 39
      m_TileSpriteIndex: 39
      m_TileMatrixIndex: 0
      m_TileColorIndex: 0
      m_ObjectToInstantiate: {fileID: 0}
      m_TileFlags: 1
      m_ColliderType: 1
  - first: {x: 2, y: -2, z: 0}
    second:
      m_TileIndex: 40
      m_TileSpriteIndex: 40
      m_TileMatrixIndex: 0
      m_TileColorIndex: 0
      m_ObjectToInstantiate: {fileID: 0}
      m_TileFlags: 1
      m_ColliderType: 1
  - first: {x: 3, y: -2, z: 0}
    second:
      m_TileIndex: 41
      m_TileSpriteIndex: 41
      m_TileMatrixIndex: 0
      m_TileColorIndex: 0
      m_ObjectToInstantiate: {fileID: 0}
      m_TileFlags: 1
      m_ColliderType: 1
  - first: {x: 4, y: -2, z: 0}
    second:
      m_TileIndex: 42
      m_TileSpriteIndex: 42
      m_TileMatrixIndex: 0
      m_TileColorIndex: 0
      m_ObjectToInstantiate: {fileID: 0}
      m_TileFlags: 1
      m_ColliderType: 1
  - first: {x: 5, y: -2, z: 0}
    second:
      m_TileIndex: 43
      m_TileSpriteIndex: 43
      m_TileMatrixIndex: 0
      m_TileColorIndex: 0
      m_ObjectToInstantiate: {fileID: 0}
      m_TileFlags: 1
      m_ColliderType: 1
  - first: {x: 6, y: -2, z: 0}
    second:
      m_TileIndex: 44
      m_TileSpriteIndex: 44
      m_TileMatrixIndex: 0
      m_TileColorIndex: 0
      m_ObjectToInstantiate: {fileID: 0}
      m_TileFlags: 1
      m_ColliderType: 1
  - first: {x: 7, y: -2, z: 0}
    second:
      m_TileIndex: 45
      m_TileSpriteIndex: 45
      m_TileMatrixIndex: 0
      m_TileColorIndex: 0
      m_ObjectToInstantiate: {fileID: 0}
      m_TileFlags: 1
      m_ColliderType: 1
  - first: {x: 8, y: -2, z: 0}
    second:
      m_TileIndex: 46
      m_TileSpriteIndex: 46
      m_TileMatrixIndex: 0
      m_TileColorIndex: 0
      m_ObjectToInstantiate: {fileID: 0}
      m_TileFlags: 1
      m_ColliderType: 1
  - first: {x: 9, y: -2, z: 0}
    second:
      m_TileIndex: 47
      m_TileSpriteIndex: 47
      m_TileMatrixIndex: 0
      m_TileColorIndex: 0
      m_ObjectToInstantiate: {fileID: 0}
      m_TileFlags: 1
      m_ColliderType: 1
  - first: {x: 10, y: -2, z: 0}
    second:
      m_TileIndex: 48
      m_TileSpriteIndex: 48
      m_TileMatrixIndex: 0
      m_TileColorIndex: 0
      m_ObjectToInstantiate: {fileID: 0}
      m_TileFlags: 1
      m_ColliderType: 1
  - first: {x: 11, y: -2, z: 0}
    second:
      m_TileIndex: 49
      m_TileSpriteIndex: 49
      m_TileMatrixIndex: 0
      m_TileColorIndex: 0
      m_ObjectToInstantiate: {fileID: 0}
      m_TileFlags: 1
      m_ColliderType: 1
  - first: {x: 12, y: -2, z: 0}
    second:
      m_TileIndex: 50
      m_TileSpriteIndex: 50
      m_TileMatrixIndex: 0
      m_TileColorIndex: 0
      m_ObjectToInstantiate: {fileID: 0}
      m_TileFlags: 1
      m_ColliderType: 1
  - first: {x: 13, y: -2, z: 0}
    second:
      m_TileIndex: 51
      m_TileSpriteIndex: 51
      m_TileMatrixIndex: 0
      m_TileColorIndex: 0
      m_ObjectToInstantiate: {fileID: 0}
      m_TileFlags: 1
      m_ColliderType: 1
  - first: {x: 14, y: -2, z: 0}
    second:
      m_TileIndex: 52
      m_TileSpriteIndex: 52
      m_TileMatrixIndex: 0
      m_TileColorIndex: 0
      m_ObjectToInstantiate: {fileID: 0}
      m_TileFlags: 1
      m_ColliderType: 1
  - first: {x: 15, y: -2, z: 0}
    second:
      m_TileIndex: 53
      m_TileSpriteIndex: 53
      m_TileMatrixIndex: 0
      m_TileColorIndex: 0
      m_ObjectToInstantiate: {fileID: 0}
      m_TileFlags: 1
      m_ColliderType: 1
  - first: {x: -2, y: -1, z: 0}
    second:
      m_TileIndex: 18
      m_TileSpriteIndex: 18
      m_TileMatrixIndex: 0
      m_TileColorIndex: 0
      m_ObjectToInstantiate: {fileID: 0}
      m_TileFlags: 1
      m_ColliderType: 1
  - first: {x: -1, y: -1, z: 0}
    second:
      m_TileIndex: 19
      m_TileSpriteIndex: 19
      m_TileMatrixIndex: 0
      m_TileColorIndex: 0
      m_ObjectToInstantiate: {fileID: 0}
      m_TileFlags: 1
      m_ColliderType: 1
  - first: {x: 0, y: -1, z: 0}
    second:
      m_TileIndex: 20
      m_TileSpriteIndex: 20
      m_TileMatrixIndex: 0
      m_TileColorIndex: 0
      m_ObjectToInstantiate: {fileID: 0}
      m_TileFlags: 1
      m_ColliderType: 1
  - first: {x: 1, y: -1, z: 0}
    second:
      m_TileIndex: 21
      m_TileSpriteIndex: 21
      m_TileMatrixIndex: 0
      m_TileColorIndex: 0
      m_ObjectToInstantiate: {fileID: 0}
      m_TileFlags: 1
      m_ColliderType: 1
  - first: {x: 2, y: -1, z: 0}
    second:
      m_TileIndex: 22
      m_TileSpriteIndex: 22
      m_TileMatrixIndex: 0
      m_TileColorIndex: 0
      m_ObjectToInstantiate: {fileID: 0}
      m_TileFlags: 1
      m_ColliderType: 1
  - first: {x: 3, y: -1, z: 0}
    second:
      m_TileIndex: 23
      m_TileSpriteIndex: 23
      m_TileMatrixIndex: 0
      m_TileColorIndex: 0
      m_ObjectToInstantiate: {fileID: 0}
      m_TileFlags: 1
      m_ColliderType: 1
  - first: {x: 4, y: -1, z: 0}
    second:
      m_TileIndex: 24
      m_TileSpriteIndex: 24
      m_TileMatrixIndex: 0
      m_TileColorIndex: 0
      m_ObjectToInstantiate: {fileID: 0}
      m_TileFlags: 1
      m_ColliderType: 1
  - first: {x: 5, y: -1, z: 0}
    second:
      m_TileIndex: 25
      m_TileSpriteIndex: 25
      m_TileMatrixIndex: 0
      m_TileColorIndex: 0
      m_ObjectToInstantiate: {fileID: 0}
      m_TileFlags: 1
      m_ColliderType: 1
  - first: {x: 6, y: -1, z: 0}
    second:
      m_TileIndex: 26
      m_TileSpriteIndex: 26
      m_TileMatrixIndex: 0
      m_TileColorIndex: 0
      m_ObjectToInstantiate: {fileID: 0}
      m_TileFlags: 1
      m_ColliderType: 1
  - first: {x: 7, y: -1, z: 0}
    second:
      m_TileIndex: 27
      m_TileSpriteIndex: 27
      m_TileMatrixIndex: 0
      m_TileColorIndex: 0
      m_ObjectToInstantiate: {fileID: 0}
      m_TileFlags: 1
      m_ColliderType: 1
  - first: {x: 8, y: -1, z: 0}
    second:
      m_TileIndex: 28
      m_TileSpriteIndex: 28
      m_TileMatrixIndex: 0
      m_TileColorIndex: 0
      m_ObjectToInstantiate: {fileID: 0}
      m_TileFlags: 1
      m_ColliderType: 1
  - first: {x: 9, y: -1, z: 0}
    second:
      m_TileIndex: 29
      m_TileSpriteIndex: 29
      m_TileMatrixIndex: 0
      m_TileColorIndex: 0
      m_ObjectToInstantiate: {fileID: 0}
      m_TileFlags: 1
      m_ColliderType: 1
  - first: {x: 10, y: -1, z: 0}
    second:
      m_TileIndex: 30
      m_TileSpriteIndex: 30
      m_TileMatrixIndex: 0
      m_TileColorIndex: 0
      m_ObjectToInstantiate: {fileID: 0}
      m_TileFlags: 1
      m_ColliderType: 1
  - first: {x: 11, y: -1, z: 0}
    second:
      m_TileIndex: 31
      m_TileSpriteIndex: 31
      m_TileMatrixIndex: 0
      m_TileColorIndex: 0
      m_ObjectToInstantiate: {fileID: 0}
      m_TileFlags: 1
      m_ColliderType: 1
  - first: {x: 12, y: -1, z: 0}
    second:
      m_TileIndex: 32
      m_TileSpriteIndex: 32
      m_TileMatrixIndex: 0
      m_TileColorIndex: 0
      m_ObjectToInstantiate: {fileID: 0}
      m_TileFlags: 1
      m_ColliderType: 1
  - first: {x: 13, y: -1, z: 0}
    second:
      m_TileIndex: 33
      m_TileSpriteIndex: 33
      m_TileMatrixIndex: 0
      m_TileColorIndex: 0
      m_ObjectToInstantiate: {fileID: 0}
      m_TileFlags: 1
      m_ColliderType: 1
  - first: {x: 14, y: -1, z: 0}
    second:
      m_TileIndex: 34
      m_TileSpriteIndex: 34
      m_TileMatrixIndex: 0
      m_TileColorIndex: 0
      m_ObjectToInstantiate: {fileID: 0}
      m_TileFlags: 1
      m_ColliderType: 1
  - first: {x: 15, y: -1, z: 0}
    second:
      m_TileIndex: 35
      m_TileSpriteIndex: 35
      m_TileMatrixIndex: 0
      m_TileColorIndex: 0
      m_ObjectToInstantiate: {fileID: 0}
      m_TileFlags: 1
      m_ColliderType: 1
  - first: {x: -2, y: 0, z: 0}
    second:
      m_TileIndex: 0
      m_TileSpriteIndex: 0
      m_TileMatrixIndex: 0
      m_TileColorIndex: 0
      m_ObjectToInstantiate: {fileID: 0}
      m_TileFlags: 1
      m_ColliderType: 1
  - first: {x: -1, y: 0, z: 0}
    second:
      m_TileIndex: 1
      m_TileSpriteIndex: 1
      m_TileMatrixIndex: 0
      m_TileColorIndex: 0
      m_ObjectToInstantiate: {fileID: 0}
      m_TileFlags: 1
      m_ColliderType: 1
  - first: {x: 0, y: 0, z: 0}
    second:
      m_TileIndex: 2
      m_TileSpriteIndex: 2
      m_TileMatrixIndex: 0
      m_TileColorIndex: 0
      m_ObjectToInstantiate: {fileID: 0}
      m_TileFlags: 1
      m_ColliderType: 1
  - first: {x: 1, y: 0, z: 0}
    second:
      m_TileIndex: 3
      m_TileSpriteIndex: 3
      m_TileMatrixIndex: 0
      m_TileColorIndex: 0
      m_ObjectToInstantiate: {fileID: 0}
      m_TileFlags: 1
      m_ColliderType: 1
  - first: {x: 2, y: 0, z: 0}
    second:
      m_TileIndex: 4
      m_TileSpriteIndex: 4
      m_TileMatrixIndex: 0
      m_TileColorIndex: 0
      m_ObjectToInstantiate: {fileID: 0}
      m_TileFlags: 1
      m_ColliderType: 1
  - first: {x: 3, y: 0, z: 0}
    second:
      m_TileIndex: 5
      m_TileSpriteIndex: 5
      m_TileMatrixIndex: 0
      m_TileColorIndex: 0
      m_ObjectToInstantiate: {fileID: 0}
      m_TileFlags: 1
      m_ColliderType: 1
  - first: {x: 4, y: 0, z: 0}
    second:
      m_TileIndex: 6
      m_TileSpriteIndex: 6
      m_TileMatrixIndex: 0
      m_TileColorIndex: 0
      m_ObjectToInstantiate: {fileID: 0}
      m_TileFlags: 1
      m_ColliderType: 1
  - first: {x: 5, y: 0, z: 0}
    second:
      m_TileIndex: 7
      m_TileSpriteIndex: 7
      m_TileMatrixIndex: 0
      m_TileColorIndex: 0
      m_ObjectToInstantiate: {fileID: 0}
      m_TileFlags: 1
      m_ColliderType: 1
  - first: {x: 6, y: 0, z: 0}
    second:
      m_TileIndex: 8
      m_TileSpriteIndex: 8
      m_TileMatrixIndex: 0
      m_TileColorIndex: 0
      m_ObjectToInstantiate: {fileID: 0}
      m_TileFlags: 1
      m_ColliderType: 1
  - first: {x: 7, y: 0, z: 0}
    second:
      m_TileIndex: 9
      m_TileSpriteIndex: 9
      m_TileMatrixIndex: 0
      m_TileColorIndex: 0
      m_ObjectToInstantiate: {fileID: 0}
      m_TileFlags: 1
      m_ColliderType: 1
  - first: {x: 8, y: 0, z: 0}
    second:
      m_TileIndex: 10
      m_TileSpriteIndex: 10
      m_TileMatrixIndex: 0
      m_TileColorIndex: 0
      m_ObjectToInstantiate: {fileID: 0}
      m_TileFlags: 1
      m_ColliderType: 1
  - first: {x: 9, y: 0, z: 0}
    second:
      m_TileIndex: 11
      m_TileSpriteIndex: 11
      m_TileMatrixIndex: 0
      m_TileColorIndex: 0
      m_ObjectToInstantiate: {fileID: 0}
      m_TileFlags: 1
      m_ColliderType: 1
  - first: {x: 10, y: 0, z: 0}
    second:
      m_TileIndex: 12
      m_TileSpriteIndex: 12
      m_TileMatrixIndex: 0
      m_TileColorIndex: 0
      m_ObjectToInstantiate: {fileID: 0}
      m_TileFlags: 1
      m_ColliderType: 1
  - first: {x: 11, y: 0, z: 0}
    second:
      m_TileIndex: 13
      m_TileSpriteIndex: 13
      m_TileMatrixIndex: 0
      m_TileColorIndex: 0
      m_ObjectToInstantiate: {fileID: 0}
      m_TileFlags: 1
      m_ColliderType: 1
  - first: {x: 12, y: 0, z: 0}
    second:
      m_TileIndex: 14
      m_TileSpriteIndex: 14
      m_TileMatrixIndex: 0
      m_TileColorIndex: 0
      m_ObjectToInstantiate: {fileID: 0}
      m_TileFlags: 1
      m_ColliderType: 1
  - first: {x: 13, y: 0, z: 0}
    second:
      m_TileIndex: 15
      m_TileSpriteIndex: 15
      m_TileMatrixIndex: 0
      m_TileColorIndex: 0
      m_ObjectToInstantiate: {fileID: 0}
      m_TileFlags: 1
      m_ColliderType: 1
  - first: {x: 14, y: 0, z: 0}
    second:
      m_TileIndex: 16
      m_TileSpriteIndex: 16
      m_TileMatrixIndex: 0
      m_TileColorIndex: 0
      m_ObjectToInstantiate: {fileID: 0}
      m_TileFlags: 1
      m_ColliderType: 1
  - first: {x: 15, y: 0, z: 0}
    second:
      m_TileIndex: 17
      m_TileSpriteIndex: 17
      m_TileMatrixIndex: 0
      m_TileColorIndex: 0
      m_ObjectToInstantiate: {fileID: 0}
      m_TileFlags: 1
      m_ColliderType: 1
  m_AnimatedTiles: {}
  m_TileAssetArray:
  - m_RefCount: 1
    m_Data: {fileID: 11400000, guid: b996016c2af885e46bd0343dd753738b, type: 2}
  - m_RefCount: 1
    m_Data: {fileID: 11400000, guid: c300e8b1975e7c440af4726aabb1f844, type: 2}
  - m_RefCount: 1
    m_Data: {fileID: 11400000, guid: e9a5a8ca9689cdd4b90a426f434c28cd, type: 2}
  - m_RefCount: 1
    m_Data: {fileID: 11400000, guid: 25a0f9c204b3d3641aaf01e2465fba31, type: 2}
  - m_RefCount: 1
    m_Data: {fileID: 11400000, guid: b0ccf631a51915d418eae09347d0a3af, type: 2}
  - m_RefCount: 1
    m_Data: {fileID: 11400000, guid: b9055a223c1e74e48af5428e94192ea8, type: 2}
  - m_RefCount: 1
    m_Data: {fileID: 11400000, guid: 2b8764666cfdec643ac17c4a3855e866, type: 2}
  - m_RefCount: 1
    m_Data: {fileID: 11400000, guid: bea426328265da04791bed2f2e2ef23a, type: 2}
  - m_RefCount: 1
    m_Data: {fileID: 11400000, guid: 9bb70bb81ca94314cbdbd096266e8a0d, type: 2}
  - m_RefCount: 1
    m_Data: {fileID: 11400000, guid: 88160fe715e723b4fb7bdc698cfc952b, type: 2}
  - m_RefCount: 1
    m_Data: {fileID: 11400000, guid: 8f9a988a17112b9459ed464049ef4ad6, type: 2}
  - m_RefCount: 1
    m_Data: {fileID: 11400000, guid: b38e46856b5714b4e989c3ba4213324b, type: 2}
  - m_RefCount: 1
    m_Data: {fileID: 11400000, guid: 07765dd643e4ece41aafe0154a7f3c90, type: 2}
  - m_RefCount: 1
    m_Data: {fileID: 11400000, guid: 474c06a70543107439589e27ff9575d9, type: 2}
  - m_RefCount: 1
    m_Data: {fileID: 11400000, guid: 22c01ceb9d5a1524883217bcfaddcbd9, type: 2}
  - m_RefCount: 1
    m_Data: {fileID: 11400000, guid: 55740291991d51f4ab4342e4806d7906, type: 2}
  - m_RefCount: 1
    m_Data: {fileID: 11400000, guid: d448ec35865c09d46ae5efbbc62d9156, type: 2}
  - m_RefCount: 1
    m_Data: {fileID: 11400000, guid: 96af0b5ec5dd67d47b25e58668e279a1, type: 2}
  - m_RefCount: 1
    m_Data: {fileID: 11400000, guid: 312052cce2e5dd34580c84f846ffb1b3, type: 2}
  - m_RefCount: 1
    m_Data: {fileID: 11400000, guid: b3151bf27414ac64d9549553f4091c07, type: 2}
  - m_RefCount: 1
    m_Data: {fileID: 11400000, guid: a687499460bee62418e4f8d4a568449d, type: 2}
  - m_RefCount: 1
    m_Data: {fileID: 11400000, guid: 83a5edb5ccfdeea428ecfe0a05e3006d, type: 2}
  - m_RefCount: 1
    m_Data: {fileID: 11400000, guid: a122f10179705c748a0095952010c836, type: 2}
  - m_RefCount: 1
    m_Data: {fileID: 11400000, guid: bc35584e47c7a7a448f804462d324b92, type: 2}
  - m_RefCount: 1
    m_Data: {fileID: 11400000, guid: c90df65f386030b4c9654d9ff57d1200, type: 2}
  - m_RefCount: 1
    m_Data: {fileID: 11400000, guid: 6b5ec09fcc847bc4dbc3937263681e16, type: 2}
  - m_RefCount: 1
    m_Data: {fileID: 11400000, guid: dabed0a5dd382df4b85b3eb10fa92dcb, type: 2}
  - m_RefCount: 1
    m_Data: {fileID: 11400000, guid: 391ce5da950bc1c4997eba8366325a53, type: 2}
  - m_RefCount: 1
    m_Data: {fileID: 11400000, guid: 56de51e01dccedf41bc04e05e715aab7, type: 2}
  - m_RefCount: 1
    m_Data: {fileID: 11400000, guid: 2f3271bbe6b15b14caaaca971e5d1395, type: 2}
  - m_RefCount: 1
    m_Data: {fileID: 11400000, guid: 4d2f93964c03bc445a9eb3d2529c303e, type: 2}
  - m_RefCount: 1
    m_Data: {fileID: 11400000, guid: e4fd99a4238c80b4486e5b13845da1b0, type: 2}
  - m_RefCount: 1
    m_Data: {fileID: 11400000, guid: 115f29cf3e271eb41a1f12955e81f4f8, type: 2}
  - m_RefCount: 1
    m_Data: {fileID: 11400000, guid: 6a04aef772db5ab44b9048e309cb9c2c, type: 2}
  - m_RefCount: 1
    m_Data: {fileID: 11400000, guid: 90b9bef12233dd34ab2bf81d53fa2327, type: 2}
  - m_RefCount: 1
    m_Data: {fileID: 11400000, guid: 264b5db7c8d22844996510717255d941, type: 2}
  - m_RefCount: 1
    m_Data: {fileID: 11400000, guid: 38dc624496bb1d241a8d538b114e5a4d, type: 2}
  - m_RefCount: 1
    m_Data: {fileID: 11400000, guid: 7c979b745549b634ab990910ded44849, type: 2}
  - m_RefCount: 1
    m_Data: {fileID: 11400000, guid: ef855cf625edec7449b3a6875215ea5e, type: 2}
  - m_RefCount: 1
    m_Data: {fileID: 11400000, guid: 891c05391e63db14d915f90bc64ce44d, type: 2}
  - m_RefCount: 1
    m_Data: {fileID: 11400000, guid: 0cad2920737a9ff4086c6874887918b5, type: 2}
  - m_RefCount: 1
    m_Data: {fileID: 11400000, guid: 8e33fa39d88584341bb541668208a47e, type: 2}
  - m_RefCount: 1
    m_Data: {fileID: 11400000, guid: 45a4c65bd58b92e4a9c648d42ffd6d31, type: 2}
  - m_RefCount: 1
    m_Data: {fileID: 11400000, guid: 81bb8360a073b2a40a00258f799f4c40, type: 2}
  - m_RefCount: 1
    m_Data: {fileID: 11400000, guid: 9ef33cc0d3b2cb041801694ed5a90a3b, type: 2}
  - m_RefCount: 1
    m_Data: {fileID: 11400000, guid: f7ee6655aed42a14fbe185da518b0113, type: 2}
  - m_RefCount: 1
    m_Data: {fileID: 11400000, guid: 6b0e3f3ac9cdc174caa102efb5043db8, type: 2}
  - m_RefCount: 1
    m_Data: {fileID: 11400000, guid: f79fa1834f45a5142ae5e4e2f140deef, type: 2}
  - m_RefCount: 1
    m_Data: {fileID: 11400000, guid: b28138ead2a000249b871620800a4920, type: 2}
  - m_RefCount: 1
    m_Data: {fileID: 11400000, guid: 37257b461d8a0d04eb706539a1455ae1, type: 2}
  - m_RefCount: 1
    m_Data: {fileID: 11400000, guid: b2e16a48edc8cea45a4cab5deb49e021, type: 2}
  - m_RefCount: 1
    m_Data: {fileID: 11400000, guid: d504b3b8a78f8034e9ef5d7623e8235f, type: 2}
  - m_RefCount: 1
    m_Data: {fileID: 11400000, guid: 813bfa5f7da0fdf4cad5f00e6ae01282, type: 2}
  - m_RefCount: 1
    m_Data: {fileID: 11400000, guid: f0b517119349f5843aaa5b58f36e843d, type: 2}
  - m_RefCount: 1
    m_Data: {fileID: 11400000, guid: 244fbacbed7c01f44b2fe1cb5f9c6394, type: 2}
  - m_RefCount: 1
    m_Data: {fileID: 11400000, guid: 667f1762747f47244875fe198f762ecb, type: 2}
  - m_RefCount: 1
    m_Data: {fileID: 11400000, guid: de855c7b085a5da4880af42e7259a73f, type: 2}
  - m_RefCount: 1
    m_Data: {fileID: 11400000, guid: 0ce65d257a7a0ba47bba2199e03c53d1, type: 2}
  - m_RefCount: 1
    m_Data: {fileID: 11400000, guid: 66e548788affed44aad369b934039b7e, type: 2}
  - m_RefCount: 1
    m_Data: {fileID: 11400000, guid: 7e51612eb156e2240bad3e0582c6c906, type: 2}
  - m_RefCount: 1
    m_Data: {fileID: 11400000, guid: 0676027c5c228864cacbb1c0f5541b35, type: 2}
  - m_RefCount: 1
    m_Data: {fileID: 11400000, guid: da3c4cff381d61d41ae6bcad260654a3, type: 2}
  - m_RefCount: 1
    m_Data: {fileID: 11400000, guid: d422c6708d712a244b098388ab70943c, type: 2}
  - m_RefCount: 1
    m_Data: {fileID: 11400000, guid: 90f7d3b55ec13564290e8eb4c2e6b3a1, type: 2}
  - m_RefCount: 1
    m_Data: {fileID: 11400000, guid: 0be599a2f3346a94f83927249eab4ecd, type: 2}
  - m_RefCount: 1
    m_Data: {fileID: 11400000, guid: 683a455baab949d43b8f513bda651f6a, type: 2}
  - m_RefCount: 1
    m_Data: {fileID: 11400000, guid: 303aa393f0759004db4b8e70dc32edec, type: 2}
  - m_RefCount: 1
    m_Data: {fileID: 11400000, guid: 950183671efdb0d4786bac51b8b94086, type: 2}
  - m_RefCount: 1
    m_Data: {fileID: 11400000, guid: 3a4cd90b2b2ab1b448b041ac9cc859ad, type: 2}
  - m_RefCount: 1
    m_Data: {fileID: 11400000, guid: 04e4fb908c8bb4e4d99a02a21fc9552d, type: 2}
  - m_RefCount: 1
    m_Data: {fileID: 11400000, guid: 30c021951b341094e8d1362198dd8309, type: 2}
  - m_RefCount: 1
    m_Data: {fileID: 11400000, guid: cb21b6ba82fc55d4aaccd0d64ef148b8, type: 2}
  - m_RefCount: 1
    m_Data: {fileID: 11400000, guid: 7fdbff336b2e9784299095b6cea7889e, type: 2}
  - m_RefCount: 1
    m_Data: {fileID: 11400000, guid: 553985ba1862f4c4a9059917623d94d7, type: 2}
  - m_RefCount: 1
    m_Data: {fileID: 11400000, guid: c207d05317ebe74418a4f02b9ee7ea5d, type: 2}
  - m_RefCount: 1
    m_Data: {fileID: 11400000, guid: 446940190b854a947a9547c5bab94160, type: 2}
  - m_RefCount: 1
    m_Data: {fileID: 11400000, guid: 46a099507632aeb4ab67a0ec427926fd, type: 2}
  - m_RefCount: 1
    m_Data: {fileID: 11400000, guid: 7cd543fd1d27d84409356cdb3c5c2eae, type: 2}
  - m_RefCount: 1
    m_Data: {fileID: 11400000, guid: 035fdb9b11a43d542b6785237eddad05, type: 2}
  - m_RefCount: 1
    m_Data: {fileID: 11400000, guid: 80af476cb9e30ef419947dc87a34d3d5, type: 2}
  - m_RefCount: 1
    m_Data: {fileID: 11400000, guid: 220bff19ef06bbc47a28b411620bf5fb, type: 2}
  - m_RefCount: 1
    m_Data: {fileID: 11400000, guid: 59bad642a162e554691ed01c35616042, type: 2}
  - m_RefCount: 1
    m_Data: {fileID: 11400000, guid: 0bdb221a17de9f6498e31d0cf9fea190, type: 2}
  - m_RefCount: 1
    m_Data: {fileID: 11400000, guid: 813333a4e00b4a64e8e78b53db97dcf2, type: 2}
  - m_RefCount: 1
    m_Data: {fileID: 11400000, guid: 12caf84c0a82fc8499cd34fffd4f7c59, type: 2}
  - m_RefCount: 1
    m_Data: {fileID: 11400000, guid: 72a2a8ce770fdda468cddbcb87ff1eb6, type: 2}
  - m_RefCount: 1
    m_Data: {fileID: 11400000, guid: 5bec482c7f275a4468d9d0e64c9e7d61, type: 2}
  - m_RefCount: 1
    m_Data: {fileID: 11400000, guid: 48c59a35e99f2184993fd32b9bde6c15, type: 2}
  - m_RefCount: 1
    m_Data: {fileID: 11400000, guid: b3f6a9175544b6049a31a379b1005508, type: 2}
  - m_RefCount: 1
    m_Data: {fileID: 11400000, guid: 30d022e1f9509ea468f3de12b8a17194, type: 2}
  - m_RefCount: 1
    m_Data: {fileID: 11400000, guid: f79374c3b23a88543b6c6dd99e335ee0, type: 2}
  - m_RefCount: 1
    m_Data: {fileID: 11400000, guid: 2eac75df4ea8cfa498e50369ba2c6417, type: 2}
  - m_RefCount: 1
    m_Data: {fileID: 11400000, guid: 97860b3969abd154e879e793a4f20808, type: 2}
  - m_RefCount: 1
    m_Data: {fileID: 11400000, guid: 37053b13d83df804d9ed3f038f3134c0, type: 2}
  - m_RefCount: 1
    m_Data: {fileID: 11400000, guid: 6659ad5078cdf8f45a5605189ced12f7, type: 2}
  - m_RefCount: 1
    m_Data: {fileID: 11400000, guid: 0cbe02d7274968b419d356379719d788, type: 2}
  - m_RefCount: 1
    m_Data: {fileID: 11400000, guid: 26060566354f7944fa3cc42644b03563, type: 2}
  - m_RefCount: 1
    m_Data: {fileID: 11400000, guid: 6810ce221798f0a4d8fb99c11d1ac1ca, type: 2}
  - m_RefCount: 1
    m_Data: {fileID: 11400000, guid: c05bd195dde73fc40969b417595becb0, type: 2}
  - m_RefCount: 1
    m_Data: {fileID: 11400000, guid: a7a70907ce3747e408bfd6cc1bfb2feb, type: 2}
  - m_RefCount: 1
    m_Data: {fileID: 11400000, guid: 820f77841584b0140ae1c45b63acac91, type: 2}
  - m_RefCount: 1
    m_Data: {fileID: 11400000, guid: f64e89ff41508434cb007f5044617aad, type: 2}
  - m_RefCount: 1
    m_Data: {fileID: 11400000, guid: ff9ce64441897e94bae0668525c2c43f, type: 2}
  - m_RefCount: 1
    m_Data: {fileID: 11400000, guid: 6a76b8b7ae360ae41a3b4016de4b44fa, type: 2}
  - m_RefCount: 1
    m_Data: {fileID: 11400000, guid: a924aa2b32f28574795918ee995cea0e, type: 2}
  - m_RefCount: 1
    m_Data: {fileID: 11400000, guid: 1e496789ff7249b45941b12b3cef952b, type: 2}
  - m_RefCount: 1
    m_Data: {fileID: 11400000, guid: 92da19dcf1ad2f944a7bb454f7227fc9, type: 2}
  - m_RefCount: 1
    m_Data: {fileID: 11400000, guid: 91a0a69070abcdc42a2ad2d5f9d3ce43, type: 2}
  - m_RefCount: 1
    m_Data: {fileID: 11400000, guid: 933a3f961fa214f43a4c28d716558fdb, type: 2}
  - m_RefCount: 1
    m_Data: {fileID: 11400000, guid: f21b830dc9382ef48adfeb9bf36940ca, type: 2}
  - m_RefCount: 1
    m_Data: {fileID: 11400000, guid: 62e47198a08657b4196031d3a4ac7ef6, type: 2}
  - m_RefCount: 1
    m_Data: {fileID: 11400000, guid: 85178898108ccd54da98cd00949b98f2, type: 2}
  - m_RefCount: 1
    m_Data: {fileID: 11400000, guid: b0e8b5329ec700c44b8fe19729cac1ab, type: 2}
  - m_RefCount: 1
    m_Data: {fileID: 11400000, guid: afeb5ab27812af9458c23fe6419bbc6e, type: 2}
  - m_RefCount: 1
    m_Data: {fileID: 11400000, guid: 1b087ce955131934aa5b5f9eb1ab56c6, type: 2}
  - m_RefCount: 1
    m_Data: {fileID: 11400000, guid: 45d7b2697e9fec546bae576f61260a5e, type: 2}
  - m_RefCount: 1
    m_Data: {fileID: 11400000, guid: f9ba6d6395481f644ac321c84470afcb, type: 2}
  - m_RefCount: 1
    m_Data: {fileID: 11400000, guid: 1d0af3291d375b84fb252efb4814a058, type: 2}
  - m_RefCount: 1
    m_Data: {fileID: 11400000, guid: 112bf5b31950b14469bbe779faf96e1a, type: 2}
  - m_RefCount: 1
    m_Data: {fileID: 11400000, guid: 1a69795672e82ac41bf209b9543a580c, type: 2}
  - m_RefCount: 1
    m_Data: {fileID: 11400000, guid: cdff569f0af3d3e4dab3fa8212953a5e, type: 2}
  - m_RefCount: 1
    m_Data: {fileID: 11400000, guid: b7aa9a0940a1bdc4da785cd180cf3bb0, type: 2}
  - m_RefCount: 1
    m_Data: {fileID: 11400000, guid: f10f1f6bab7750444a38761c40bb338d, type: 2}
  - m_RefCount: 1
    m_Data: {fileID: 11400000, guid: f837dd8b99fa0c44cba23fafeb7944fe, type: 2}
  - m_RefCount: 1
    m_Data: {fileID: 11400000, guid: 46c8c2a6f6255bd4a8a8a7c21b3cfc83, type: 2}
  - m_RefCount: 1
    m_Data: {fileID: 11400000, guid: 4193d002cc7a75049a1212a825bbd289, type: 2}
  - m_RefCount: 1
    m_Data: {fileID: 11400000, guid: 9a3de1774713e0a48abdfd59e4a01261, type: 2}
  - m_RefCount: 1
    m_Data: {fileID: 11400000, guid: 635d486b2afb6764bb96085a0ec07a05, type: 2}
  - m_RefCount: 1
    m_Data: {fileID: 11400000, guid: 9717cbde3fe4f3a47bdbc7e113148373, type: 2}
  - m_RefCount: 1
    m_Data: {fileID: 11400000, guid: 4427613a852dd814d9bc3f9620cda6be, type: 2}
  - m_RefCount: 1
    m_Data: {fileID: 11400000, guid: 075a27521733e834cb60bcbc9a68c28a, type: 2}
  - m_RefCount: 1
    m_Data: {fileID: 11400000, guid: 7f664498f3dd074419a4ec29a85210e4, type: 2}
  - m_RefCount: 1
    m_Data: {fileID: 11400000, guid: f9d3a1d85a308cf41a774bf3a7bc38e7, type: 2}
  - m_RefCount: 1
    m_Data: {fileID: 11400000, guid: 13d6979752163844ab95ac26a3b6c602, type: 2}
  - m_RefCount: 1
    m_Data: {fileID: 11400000, guid: 3844f17450a342642a2bbd7b1e22aa71, type: 2}
  - m_RefCount: 1
    m_Data: {fileID: 11400000, guid: c1234fc22cc775d4187685ebd3f86685, type: 2}
  - m_RefCount: 1
    m_Data: {fileID: 11400000, guid: 5b9e1c1dd1b2dd7488064b9ddfb11397, type: 2}
  - m_RefCount: 1
    m_Data: {fileID: 11400000, guid: db417bb514f2041468ce5e6b64da17da, type: 2}
  - m_RefCount: 1
    m_Data: {fileID: 11400000, guid: ea9ca6774b453e94bb478df7729d9891, type: 2}
  m_TileSpriteArray:
  - m_RefCount: 1
    m_Data: {fileID: -5105445497412365711, guid: 016b649303e68ee45b0acd71435481f1,
      type: 3}
  - m_RefCount: 1
    m_Data: {fileID: -223271391482710264, guid: 016b649303e68ee45b0acd71435481f1,
      type: 3}
  - m_RefCount: 1
    m_Data: {fileID: -3740471521783320048, guid: 016b649303e68ee45b0acd71435481f1,
      type: 3}
  - m_RefCount: 1
    m_Data: {fileID: 5236942648109011820, guid: 016b649303e68ee45b0acd71435481f1,
      type: 3}
  - m_RefCount: 1
    m_Data: {fileID: 4846640421449432821, guid: 016b649303e68ee45b0acd71435481f1,
      type: 3}
  - m_RefCount: 1
    m_Data: {fileID: 6774955692688193771, guid: 016b649303e68ee45b0acd71435481f1,
      type: 3}
  - m_RefCount: 1
    m_Data: {fileID: 7119460069089848362, guid: 016b649303e68ee45b0acd71435481f1,
      type: 3}
  - m_RefCount: 1
    m_Data: {fileID: 2570048395201566926, guid: 016b649303e68ee45b0acd71435481f1,
      type: 3}
  - m_RefCount: 1
    m_Data: {fileID: -5490660911931257373, guid: 016b649303e68ee45b0acd71435481f1,
      type: 3}
  - m_RefCount: 1
    m_Data: {fileID: -5124730846134528779, guid: 016b649303e68ee45b0acd71435481f1,
      type: 3}
  - m_RefCount: 1
    m_Data: {fileID: -2322632066935776407, guid: 016b649303e68ee45b0acd71435481f1,
      type: 3}
  - m_RefCount: 1
    m_Data: {fileID: -6756143713148612710, guid: 016b649303e68ee45b0acd71435481f1,
      type: 3}
  - m_RefCount: 1
    m_Data: {fileID: -3321771919227636689, guid: 016b649303e68ee45b0acd71435481f1,
      type: 3}
  - m_RefCount: 1
    m_Data: {fileID: -4900868264846704126, guid: 016b649303e68ee45b0acd71435481f1,
      type: 3}
  - m_RefCount: 1
    m_Data: {fileID: -8317278318256432402, guid: 016b649303e68ee45b0acd71435481f1,
      type: 3}
  - m_RefCount: 1
    m_Data: {fileID: -590275884645002509, guid: 016b649303e68ee45b0acd71435481f1,
      type: 3}
  - m_RefCount: 1
    m_Data: {fileID: 5216340208378398505, guid: 016b649303e68ee45b0acd71435481f1,
      type: 3}
  - m_RefCount: 1
    m_Data: {fileID: -1264188664962765183, guid: 016b649303e68ee45b0acd71435481f1,
      type: 3}
  - m_RefCount: 1
    m_Data: {fileID: 5288169187114238565, guid: 016b649303e68ee45b0acd71435481f1,
      type: 3}
  - m_RefCount: 1
    m_Data: {fileID: 4646242146581700300, guid: 016b649303e68ee45b0acd71435481f1,
      type: 3}
  - m_RefCount: 1
    m_Data: {fileID: 7819256346262631733, guid: 016b649303e68ee45b0acd71435481f1,
      type: 3}
  - m_RefCount: 1
    m_Data: {fileID: 4579971327987621706, guid: 016b649303e68ee45b0acd71435481f1,
      type: 3}
  - m_RefCount: 1
    m_Data: {fileID: -790286110425221292, guid: 016b649303e68ee45b0acd71435481f1,
      type: 3}
  - m_RefCount: 1
    m_Data: {fileID: 1787486737035165540, guid: 016b649303e68ee45b0acd71435481f1,
      type: 3}
  - m_RefCount: 1
    m_Data: {fileID: 8953268843870951494, guid: 016b649303e68ee45b0acd71435481f1,
      type: 3}
  - m_RefCount: 1
    m_Data: {fileID: -100465066031490833, guid: 016b649303e68ee45b0acd71435481f1,
      type: 3}
  - m_RefCount: 1
    m_Data: {fileID: -5630581085130832372, guid: 016b649303e68ee45b0acd71435481f1,
      type: 3}
  - m_RefCount: 1
    m_Data: {fileID: -9184834574204835037, guid: 016b649303e68ee45b0acd71435481f1,
      type: 3}
  - m_RefCount: 1
    m_Data: {fileID: 7549548434784566618, guid: 016b649303e68ee45b0acd71435481f1,
      type: 3}
  - m_RefCount: 1
    m_Data: {fileID: -9001840081568124260, guid: 016b649303e68ee45b0acd71435481f1,
      type: 3}
  - m_RefCount: 1
    m_Data: {fileID: -8718178708443478996, guid: 016b649303e68ee45b0acd71435481f1,
      type: 3}
  - m_RefCount: 1
    m_Data: {fileID: -1990304645333516813, guid: 016b649303e68ee45b0acd71435481f1,
      type: 3}
  - m_RefCount: 1
    m_Data: {fileID: -4922625857685900832, guid: 016b649303e68ee45b0acd71435481f1,
      type: 3}
  - m_RefCount: 1
    m_Data: {fileID: -6781720530146607550, guid: 016b649303e68ee45b0acd71435481f1,
      type: 3}
  - m_RefCount: 1
    m_Data: {fileID: 3212992134332129507, guid: 016b649303e68ee45b0acd71435481f1,
      type: 3}
  - m_RefCount: 1
    m_Data: {fileID: 220064751638401682, guid: 016b649303e68ee45b0acd71435481f1, type: 3}
  - m_RefCount: 1
    m_Data: {fileID: 4977755301121000028, guid: 016b649303e68ee45b0acd71435481f1,
      type: 3}
  - m_RefCount: 1
    m_Data: {fileID: -26954079570114719, guid: 016b649303e68ee45b0acd71435481f1, type: 3}
  - m_RefCount: 1
    m_Data: {fileID: 8929511304608433350, guid: 016b649303e68ee45b0acd71435481f1,
      type: 3}
  - m_RefCount: 1
    m_Data: {fileID: -8485996547379162731, guid: 016b649303e68ee45b0acd71435481f1,
      type: 3}
  - m_RefCount: 1
    m_Data: {fileID: -8703567900858463443, guid: 016b649303e68ee45b0acd71435481f1,
      type: 3}
  - m_RefCount: 1
    m_Data: {fileID: 8300782645025460564, guid: 016b649303e68ee45b0acd71435481f1,
      type: 3}
  - m_RefCount: 1
    m_Data: {fileID: -4091134568881458517, guid: 016b649303e68ee45b0acd71435481f1,
      type: 3}
  - m_RefCount: 1
    m_Data: {fileID: -9068987430683449426, guid: 016b649303e68ee45b0acd71435481f1,
      type: 3}
  - m_RefCount: 1
    m_Data: {fileID: 5060819406305850042, guid: 016b649303e68ee45b0acd71435481f1,
      type: 3}
  - m_RefCount: 1
    m_Data: {fileID: 7444075714851570600, guid: 016b649303e68ee45b0acd71435481f1,
      type: 3}
  - m_RefCount: 1
    m_Data: {fileID: 1451356564784168164, guid: 016b649303e68ee45b0acd71435481f1,
      type: 3}
  - m_RefCount: 1
    m_Data: {fileID: -557124825053604863, guid: 016b649303e68ee45b0acd71435481f1,
      type: 3}
  - m_RefCount: 1
    m_Data: {fileID: -6447637732144085269, guid: 016b649303e68ee45b0acd71435481f1,
      type: 3}
  - m_RefCount: 1
    m_Data: {fileID: -2875869337823127588, guid: 016b649303e68ee45b0acd71435481f1,
      type: 3}
  - m_RefCount: 1
    m_Data: {fileID: -3834496158538005385, guid: 016b649303e68ee45b0acd71435481f1,
      type: 3}
  - m_RefCount: 1
    m_Data: {fileID: 3438933131450731252, guid: 016b649303e68ee45b0acd71435481f1,
      type: 3}
  - m_RefCount: 1
    m_Data: {fileID: 5734734690958780709, guid: 016b649303e68ee45b0acd71435481f1,
      type: 3}
  - m_RefCount: 1
    m_Data: {fileID: 4581478773698197781, guid: 016b649303e68ee45b0acd71435481f1,
      type: 3}
  - m_RefCount: 1
    m_Data: {fileID: -3093804681112028539, guid: 016b649303e68ee45b0acd71435481f1,
      type: 3}
  - m_RefCount: 1
    m_Data: {fileID: -1903929944586719182, guid: 016b649303e68ee45b0acd71435481f1,
      type: 3}
  - m_RefCount: 1
    m_Data: {fileID: -8630829542920436169, guid: 016b649303e68ee45b0acd71435481f1,
      type: 3}
  - m_RefCount: 1
    m_Data: {fileID: 2608629144893232299, guid: 016b649303e68ee45b0acd71435481f1,
      type: 3}
  - m_RefCount: 1
    m_Data: {fileID: 8589431344734742130, guid: 016b649303e68ee45b0acd71435481f1,
      type: 3}
  - m_RefCount: 1
    m_Data: {fileID: -5014720688463249112, guid: 016b649303e68ee45b0acd71435481f1,
      type: 3}
  - m_RefCount: 1
    m_Data: {fileID: -2221408162693773244, guid: 016b649303e68ee45b0acd71435481f1,
      type: 3}
  - m_RefCount: 1
    m_Data: {fileID: -547064150294343895, guid: 016b649303e68ee45b0acd71435481f1,
      type: 3}
  - m_RefCount: 1
    m_Data: {fileID: 8852852263059121858, guid: 016b649303e68ee45b0acd71435481f1,
      type: 3}
  - m_RefCount: 1
    m_Data: {fileID: -2946006851940143303, guid: 016b649303e68ee45b0acd71435481f1,
      type: 3}
  - m_RefCount: 1
    m_Data: {fileID: 1695687433652475325, guid: 016b649303e68ee45b0acd71435481f1,
      type: 3}
  - m_RefCount: 1
    m_Data: {fileID: 2254072144651869636, guid: 016b649303e68ee45b0acd71435481f1,
      type: 3}
  - m_RefCount: 1
    m_Data: {fileID: -3228356120641241182, guid: 016b649303e68ee45b0acd71435481f1,
      type: 3}
  - m_RefCount: 1
    m_Data: {fileID: -3107644086592751768, guid: 016b649303e68ee45b0acd71435481f1,
      type: 3}
  - m_RefCount: 1
    m_Data: {fileID: -2347974565365118889, guid: 016b649303e68ee45b0acd71435481f1,
      type: 3}
  - m_RefCount: 1
    m_Data: {fileID: 8132419595135934290, guid: 016b649303e68ee45b0acd71435481f1,
      type: 3}
  - m_RefCount: 1
    m_Data: {fileID: -5126571566723679812, guid: 016b649303e68ee45b0acd71435481f1,
      type: 3}
  - m_RefCount: 1
    m_Data: {fileID: 2885519107037369801, guid: 016b649303e68ee45b0acd71435481f1,
      type: 3}
  - m_RefCount: 1
    m_Data: {fileID: 6263612618598778879, guid: 016b649303e68ee45b0acd71435481f1,
      type: 3}
  - m_RefCount: 1
    m_Data: {fileID: -4006772406375360737, guid: 016b649303e68ee45b0acd71435481f1,
      type: 3}
  - m_RefCount: 1
    m_Data: {fileID: 3230779351457725902, guid: 016b649303e68ee45b0acd71435481f1,
      type: 3}
  - m_RefCount: 1
    m_Data: {fileID: 5253904511797188327, guid: 016b649303e68ee45b0acd71435481f1,
      type: 3}
  - m_RefCount: 1
    m_Data: {fileID: -346816104189332089, guid: 016b649303e68ee45b0acd71435481f1,
      type: 3}
  - m_RefCount: 1
    m_Data: {fileID: -8078070881935657949, guid: 016b649303e68ee45b0acd71435481f1,
      type: 3}
  - m_RefCount: 1
    m_Data: {fileID: 6794631647826531765, guid: 016b649303e68ee45b0acd71435481f1,
      type: 3}
  - m_RefCount: 1
    m_Data: {fileID: 4576951294610294330, guid: 016b649303e68ee45b0acd71435481f1,
      type: 3}
  - m_RefCount: 1
    m_Data: {fileID: -4340663695472726439, guid: 016b649303e68ee45b0acd71435481f1,
      type: 3}
  - m_RefCount: 1
    m_Data: {fileID: 2977647622712132326, guid: 016b649303e68ee45b0acd71435481f1,
      type: 3}
  - m_RefCount: 1
    m_Data: {fileID: 3964343374817520368, guid: 016b649303e68ee45b0acd71435481f1,
      type: 3}
  - m_RefCount: 1
    m_Data: {fileID: -4855036560319262391, guid: 016b649303e68ee45b0acd71435481f1,
      type: 3}
  - m_RefCount: 1
    m_Data: {fileID: 6418805555563721743, guid: 016b649303e68ee45b0acd71435481f1,
      type: 3}
  - m_RefCount: 1
    m_Data: {fileID: 2246457977609346730, guid: 016b649303e68ee45b0acd71435481f1,
      type: 3}
  - m_RefCount: 1
    m_Data: {fileID: 314030732714640663, guid: 016b649303e68ee45b0acd71435481f1, type: 3}
  - m_RefCount: 1
    m_Data: {fileID: -8578019216862678916, guid: 016b649303e68ee45b0acd71435481f1,
      type: 3}
  - m_RefCount: 1
    m_Data: {fileID: 8540888618484391920, guid: 016b649303e68ee45b0acd71435481f1,
      type: 3}
  - m_RefCount: 1
    m_Data: {fileID: 4932348821479087626, guid: 016b649303e68ee45b0acd71435481f1,
      type: 3}
  - m_RefCount: 1
    m_Data: {fileID: 5112116813059812542, guid: 016b649303e68ee45b0acd71435481f1,
      type: 3}
  - m_RefCount: 1
    m_Data: {fileID: -4981073282263468911, guid: 016b649303e68ee45b0acd71435481f1,
      type: 3}
  - m_RefCount: 1
    m_Data: {fileID: -2701555875531730112, guid: 016b649303e68ee45b0acd71435481f1,
      type: 3}
  - m_RefCount: 1
    m_Data: {fileID: -3140995230819350879, guid: 016b649303e68ee45b0acd71435481f1,
      type: 3}
  - m_RefCount: 1
    m_Data: {fileID: -4973436009084352456, guid: 016b649303e68ee45b0acd71435481f1,
      type: 3}
  - m_RefCount: 1
    m_Data: {fileID: 2834617661711626690, guid: 016b649303e68ee45b0acd71435481f1,
      type: 3}
  - m_RefCount: 1
    m_Data: {fileID: -1659145019908582677, guid: 016b649303e68ee45b0acd71435481f1,
      type: 3}
  - m_RefCount: 1
    m_Data: {fileID: -8157274586311466004, guid: 016b649303e68ee45b0acd71435481f1,
      type: 3}
  - m_RefCount: 1
    m_Data: {fileID: 6309382125019629586, guid: 016b649303e68ee45b0acd71435481f1,
      type: 3}
  - m_RefCount: 1
    m_Data: {fileID: -5665852614430931425, guid: 016b649303e68ee45b0acd71435481f1,
      type: 3}
  - m_RefCount: 1
    m_Data: {fileID: 5810226337418568315, guid: 016b649303e68ee45b0acd71435481f1,
      type: 3}
  - m_RefCount: 1
    m_Data: {fileID: -8624689104560291012, guid: 016b649303e68ee45b0acd71435481f1,
      type: 3}
  - m_RefCount: 1
    m_Data: {fileID: 3625748023843838138, guid: 016b649303e68ee45b0acd71435481f1,
      type: 3}
  - m_RefCount: 1
    m_Data: {fileID: -6180781802306367707, guid: 016b649303e68ee45b0acd71435481f1,
      type: 3}
  - m_RefCount: 1
    m_Data: {fileID: -3065503156252762776, guid: 016b649303e68ee45b0acd71435481f1,
      type: 3}
  - m_RefCount: 1
    m_Data: {fileID: 4591628516047426866, guid: 016b649303e68ee45b0acd71435481f1,
      type: 3}
  - m_RefCount: 1
    m_Data: {fileID: 3576187280375058723, guid: 016b649303e68ee45b0acd71435481f1,
      type: 3}
  - m_RefCount: 1
    m_Data: {fileID: -4655670090655441647, guid: 016b649303e68ee45b0acd71435481f1,
      type: 3}
  - m_RefCount: 1
    m_Data: {fileID: -7101872324108218517, guid: 016b649303e68ee45b0acd71435481f1,
      type: 3}
  - m_RefCount: 1
    m_Data: {fileID: 6604483136469063288, guid: 016b649303e68ee45b0acd71435481f1,
      type: 3}
  - m_RefCount: 1
    m_Data: {fileID: 7701349801610400350, guid: 016b649303e68ee45b0acd71435481f1,
      type: 3}
  - m_RefCount: 1
    m_Data: {fileID: -8060948420379169119, guid: 016b649303e68ee45b0acd71435481f1,
      type: 3}
  - m_RefCount: 1
    m_Data: {fileID: -23825565618105197, guid: 016b649303e68ee45b0acd71435481f1, type: 3}
  - m_RefCount: 1
    m_Data: {fileID: -9074304817867541903, guid: 016b649303e68ee45b0acd71435481f1,
      type: 3}
  - m_RefCount: 1
    m_Data: {fileID: -1727537395494720562, guid: 016b649303e68ee45b0acd71435481f1,
      type: 3}
  - m_RefCount: 1
    m_Data: {fileID: 1701825185394182491, guid: 016b649303e68ee45b0acd71435481f1,
      type: 3}
  - m_RefCount: 1
    m_Data: {fileID: -7804061938361379822, guid: 016b649303e68ee45b0acd71435481f1,
      type: 3}
  - m_RefCount: 1
    m_Data: {fileID: 5237126085020013228, guid: 016b649303e68ee45b0acd71435481f1,
      type: 3}
  - m_RefCount: 1
    m_Data: {fileID: -528349852359444598, guid: 016b649303e68ee45b0acd71435481f1,
      type: 3}
  - m_RefCount: 1
    m_Data: {fileID: -1058022287335040155, guid: 016b649303e68ee45b0acd71435481f1,
      type: 3}
  - m_RefCount: 1
    m_Data: {fileID: -4016329551453218475, guid: 016b649303e68ee45b0acd71435481f1,
      type: 3}
  - m_RefCount: 1
    m_Data: {fileID: 5439338610497987382, guid: 016b649303e68ee45b0acd71435481f1,
      type: 3}
  - m_RefCount: 1
    m_Data: {fileID: -2553229098318539437, guid: 016b649303e68ee45b0acd71435481f1,
      type: 3}
  - m_RefCount: 1
    m_Data: {fileID: -8256202592361235398, guid: 016b649303e68ee45b0acd71435481f1,
      type: 3}
  - m_RefCount: 1
    m_Data: {fileID: -8201316641879572749, guid: 016b649303e68ee45b0acd71435481f1,
      type: 3}
  - m_RefCount: 1
    m_Data: {fileID: 7914907757897015108, guid: 016b649303e68ee45b0acd71435481f1,
      type: 3}
  - m_RefCount: 1
    m_Data: {fileID: -2932058759650274694, guid: 016b649303e68ee45b0acd71435481f1,
      type: 3}
  - m_RefCount: 1
    m_Data: {fileID: -9177207292150968129, guid: 016b649303e68ee45b0acd71435481f1,
      type: 3}
  - m_RefCount: 1
    m_Data: {fileID: 1501587018822905911, guid: 016b649303e68ee45b0acd71435481f1,
      type: 3}
  - m_RefCount: 1
    m_Data: {fileID: -1357571683114197152, guid: 016b649303e68ee45b0acd71435481f1,
      type: 3}
  - m_RefCount: 1
    m_Data: {fileID: 4751374894949470492, guid: 016b649303e68ee45b0acd71435481f1,
      type: 3}
  - m_RefCount: 1
    m_Data: {fileID: -6242624261242701586, guid: 016b649303e68ee45b0acd71435481f1,
      type: 3}
  - m_RefCount: 1
    m_Data: {fileID: 7602750839438710875, guid: 016b649303e68ee45b0acd71435481f1,
      type: 3}
  - m_RefCount: 1
    m_Data: {fileID: 4075998116454373558, guid: 016b649303e68ee45b0acd71435481f1,
      type: 3}
  - m_RefCount: 1
    m_Data: {fileID: 4341921457989831667, guid: 016b649303e68ee45b0acd71435481f1,
      type: 3}
  - m_RefCount: 1
    m_Data: {fileID: 7135820072871374496, guid: 016b649303e68ee45b0acd71435481f1,
      type: 3}
  - m_RefCount: 1
    m_Data: {fileID: -7543530071018227024, guid: 016b649303e68ee45b0acd71435481f1,
      type: 3}
  - m_RefCount: 1
    m_Data: {fileID: -6387076407605154128, guid: 016b649303e68ee45b0acd71435481f1,
      type: 3}
  - m_RefCount: 1
    m_Data: {fileID: -2798123939360626669, guid: 016b649303e68ee45b0acd71435481f1,
      type: 3}
  m_TileMatrixArray:
  - m_RefCount: 139
    m_Data:
      e00: 1
      e01: 0
      e02: 0
      e03: 0
      e10: 0
      e11: 1
      e12: 0
      e13: 0
      e20: 0
      e21: 0
      e22: 1
      e23: 0
      e30: 0
      e31: 0
      e32: 0
      e33: 1
  m_TileColorArray:
  - m_RefCount: 139
    m_Data: {r: 1, g: 1, b: 1, a: 1}
  m_AnimationFrameRate: 1
  m_Color: {r: 1, g: 1, b: 1, a: 1}
  m_Origin: {x: -2, y: -8, z: 0}
  m_Size: {x: 18, y: 9, z: 1}
  m_TileAnchor: {x: 0.5, y: 0.5, z: 0}
  m_TileOrientation: 0
  m_TileOrientationMatrix:
    e00: 1
    e01: 0
    e02: 0
    e03: 0
    e10: 0
    e11: 1
    e12: 0
    e13: 0
    e20: 0
    e21: 0
    e22: 1
    e23: 0
    e30: 0
    e31: 0
    e32: 0
    e33: 1
--- !u!483693784 &9017832332137495969
TilemapRenderer:
  m_ObjectHideFlags: 0
  m_CorrespondingSourceObject: {fileID: 0}
  m_PrefabInstance: {fileID: 0}
  m_PrefabAsset: {fileID: 0}
  m_GameObject: {fileID: 5053394631617252495}
  m_Enabled: 0
  m_CastShadows: 0
  m_ReceiveShadows: 0
  m_DynamicOccludee: 0
  m_MotionVectors: 1
  m_LightProbeUsage: 0
  m_ReflectionProbeUsage: 0
  m_RenderingLayerMask: 1
  m_RendererPriority: 0
  m_Materials:
  - {fileID: 10754, guid: 0000000000000000f000000000000000, type: 0}
  m_StaticBatchInfo:
    firstSubMesh: 0
    subMeshCount: 0
  m_StaticBatchRoot: {fileID: 0}
  m_ProbeAnchor: {fileID: 0}
  m_LightProbeVolumeOverride: {fileID: 0}
  m_ScaleInLightmap: 1
  m_ReceiveGI: 1
  m_PreserveUVs: 0
  m_IgnoreNormalsForChartDetection: 0
  m_ImportantGI: 0
  m_StitchLightmapSeams: 1
  m_SelectedEditorRenderState: 0
  m_MinimumChartSize: 4
  m_AutoUVMaxDistance: 0.5
  m_AutoUVMaxAngle: 89
  m_LightmapParameters: {fileID: 0}
  m_SortingLayerID: 0
  m_SortingLayer: 0
  m_SortingOrder: 0
  m_ChunkSize: {x: 32, y: 32, z: 32}
  m_ChunkCullingBounds: {x: 0, y: 0, z: 0}
  m_MaxChunkCount: 16
  m_MaxFrameAge: 16
  m_SortOrder: 0
  m_Mode: 0
  m_DetectChunkCullingBounds: 0
  m_MaskInteraction: 0
--- !u!1 &8933117579191843971
GameObject:
  m_ObjectHideFlags: 0
  m_CorrespondingSourceObject: {fileID: 0}
  m_PrefabInstance: {fileID: 0}
  m_PrefabAsset: {fileID: 0}
  serializedVersion: 6
  m_Component:
  - component: {fileID: 4567826854434436753}
  - component: {fileID: 2535652333307162717}
  m_Layer: 31
  m_Name: Ground
  m_TagString: Untagged
  m_Icon: {fileID: 0}
  m_NavMeshLayer: 0
  m_StaticEditorFlags: 0
  m_IsActive: 1
--- !u!4 &4567826854434436753
Transform:
  m_ObjectHideFlags: 0
  m_CorrespondingSourceObject: {fileID: 0}
  m_PrefabInstance: {fileID: 0}
  m_PrefabAsset: {fileID: 0}
  m_GameObject: {fileID: 8933117579191843971}
  m_LocalRotation: {x: 0, y: 0, z: 0, w: 1}
  m_LocalPosition: {x: 0, y: 0, z: 0}
  m_LocalScale: {x: 1, y: 1, z: 1}
  m_Children:
  - {fileID: 1687630143253093124}
  m_Father: {fileID: 0}
  m_RootOrder: 0
  m_LocalEulerAnglesHint: {x: 0, y: 0, z: 0}
--- !u!156049354 &2535652333307162717
Grid:
  m_ObjectHideFlags: 0
  m_CorrespondingSourceObject: {fileID: 0}
  m_PrefabInstance: {fileID: 0}
  m_PrefabAsset: {fileID: 0}
  m_GameObject: {fileID: 8933117579191843971}
  m_Enabled: 1
  m_CellSize: {x: 1, y: 1, z: 0}
  m_CellGap: {x: 0, y: 0, z: 0}
  m_CellLayout: 0
  m_CellSwizzle: 0
--- !u!114 &3990599611209235741
MonoBehaviour:
  m_ObjectHideFlags: 0
  m_CorrespondingSourceObject: {fileID: 0}
  m_PrefabInstance: {fileID: 0}
  m_PrefabAsset: {fileID: 0}
  m_GameObject: {fileID: 0}
  m_Enabled: 1
  m_EditorHideFlags: 0
  m_Script: {fileID: 12395, guid: 0000000000000000e000000000000000, type: 0}
  m_Name: Palette Settings
  m_EditorClassIdentifier: 
  cellSizing: 0
